%YAML 1.1
%TAG !u! tag:unity3d.com,2011:
--- !u!114 &11400000
MonoBehaviour:
  m_ObjectHideFlags: 0
  m_CorrespondingSourceObject: {fileID: 0}
  m_PrefabInstance: {fileID: 0}
  m_PrefabAsset: {fileID: 0}
  m_GameObject: {fileID: 0}
  m_Enabled: 1
  m_EditorHideFlags: 0
  m_Script: {fileID: 11500000, guid: 0fc23377695e48dda8d7a5ff65c625c9, type: 3}
  m_Name: Sword
  m_EditorClassIdentifier: 
  <Name>k__BackingField: Sword
  <Image>k__BackingField: {fileID: 21300000, guid: 0f0031ca159e8754fbbb075c6b0458c2, type: 3}
  <Type>k__BackingField: 2
